-0.02339309348807469
-0.02492713327873248
-0.05504167888159133
-0.05593257363594874
-0.02572618478053287
-0.01647790084414814
-0.02411199390969254
-0.004009738523916935
-0.00449834428281324
-0.01719591861530675
-0.01731723221302563
-0.02009660652347917
-0.003615308630856638
-0.001432519238899763
-0.001506967586782899
-0.02429505880196927
-0.03408309902578485
-0.03107284323653624
-0.03011368671081226
-0.03222753089848111
-0.04885928012840815
-0.04220221138144672
-0.01358897392670179
0.004618847815851416
-0.006219777310448954
-0.0265406185240208
-0.03885548692534445
-0.03062208727112105
-0.004316245777822101
0.008443007350447907
-0.00839839752513184
-0.01308699245957451
-0.01657951205396574
0.006507002488282795
0.006871667129526907
-0.005403725501054793
-0.007422402451371503
-0.007277399632826846
0.003997168543271183
0.004718314806464773
-0.004783693474637283
-0.0138951994300644
-0.01321148866982593
-0.006386449539887313
-0.01140267327382801
-0.002380362172339489
-0.01994646716341307
-0.02170104305355689
-0.001135966391300443
-0.006397578152461903
0.003600857077585488
0.01087817265834111
-0.009007445456553138
-0.001441753950902847
-0.001379088463632332
-0.004237640361521278
-0.005708709754795093
-0.004628175411929399
4.35410724991127E-4
0.01012917764856659
0.01034700706952133
0.009214177646701825
0.01705966523371708
-3.901536751498705E-4
-0.02180340045807829
-0.02075218282906073
-0.007114839977058557
-0.007911420378400216
0.001623903131052221
0.005952578647881648
-0.0116085887739455
0.002540941075632388
0.00850065477772431
-0.03071827015057126
0.01110779132689594
0.02566723861741455
-0.01566982431422852
-0.01258777009321176
0.005491699917909108
-0.003493764018927022
-0.007795302116156668
0.01069012408956902
-0.01209226219123587
-0.02396698923790154
0.01844429564807497
0.005605029397796912
-0.02568708556804309
-0.00509041689263001
0.007606943837418312
0.009654433812922397
0.003905249085278704
-0.01597183551654983
-0.00418051078031348
-0.01335397300382931
-0.01474621804949275
0.001817922138091443
-0.01150191650672403
-0.01107875229900053
0.002605444423363105
0.00906843387106049
5.379356259593728E-4
-0.002070969256436459
0.009408188833580933
0.01135767154362332
-0.002710054422821251
-9.358959690227448E-6
0.01510305426363916
0.005127082356100145
-1.180902324888374E-5
-0.001616542592141365
0.01514410659275157
0.009161329017939784
0.002351634955830387
-0.00595929058498368
-0.009183639722276395
0.002061371647831948
0.004816928375414018
0.001589126399598874
0.01059226879639114
0.01474186530074773
0.01712167910551046
0.01427737871208929
0.004861237306604627
-0.006179145800293771
-0.002661443284991113
0.008066178166802615
0.02073581649388398
0.01069761980659883
-0.003159669863969199
-0.01613929763370165
-0.01757286109726735
-0.005621162264524077
0.02348886611145217
-0.009191292677875537
-0.01219460528293285
0.003312986762993446
-0.01335336492688451
-0.01335186663783383
0.004365347040172928
0.009278301352522783
0.003133379746217975
-0.007577455588599307
-0.004098210918625056
-0.006986749926889314
-0.004423193833965578
0.001736130231183275
-0.01168545077451161
-0.003833278727365695
-0.001443897482304704
-0.01167456975958698
5.67191270652385E-5
6.067558322190665E-4
-0.003469411178081505
-0.00437333441285973
-0.008311311813348883
-0.009281480299024234
0.001259326224547694
0.009442062794918417
0.008612956779249689
0.001800424151754197
0.00311254951047312
0.007681360824426068
0.00476496079404829
-0.01143666617001177
-9.60929344903534E-4
-5.606836764469318E-4
-0.006512579561122504
0.003000185232815749
0.006581124282739758
0.007329004479382961
0.01193049822918481
-0.00231439503073307
-0.008383734494352882
-0.01738910796525831
-0.01729294575409214
-5.940265280566886E-4
0.0103426538767649
0.002154423007706806
0.002918236433291834
-0.01401603175149077
-0.01269256715833252
-0.0147583186633623
-0.01614219830389768
-0.009693937710049639
-0.004771699866665129
-0.01846957496015859
-0.004895754225219127
0.001578287910513845
0.01263546831871336
0.02007314674865454
0.009260814498452766
9.626563152959743E-4
0.002956585531461418
0.01640444589257334
0.01050009199631125
0.009815441999367113
0.0210284276660867
0.01198601829586106
0.002333123763207409
-0.0085546917362811
-0.002267602956743419
-0.00950575273273786
-0.01788888262232382
-0.003523847073399991
-0.00955771971704518
-0.01760130870925216
-0.014096207901948
-0.002230520080559385
-0.003108224391943109
-0.005113920670242295
0.00281372213800879
-9.618353317152068E-4
-0.00196204361061511
0.004036054810431637
0.009385734090759311
-0.01027470644952957
7.886073183393102E-4
0.008995388025659927
0.01440498349491965
0.02346541586806397
-8.761533579088777E-4
0.00924602724151802
0.01823355917609509
0.01000550285949166
0.01557749030132296
0.01982695599814838
0.01288222705052535
0.01140252918693968
0.0070132847592457
0.0110708533320001
0.01134366970411644
-0.006699039667878175
-0.002037766882442879
0.008863720658716665
0.01995914055359509
0.01468403630519136
-0.003201485566897354
9.752789526775815E-4
0.01210519724153359
-0.00577984962823029
-0.009310068256856353
-0.009379207426780497
0.001001607366698973
0.009340027450256793
0.002450963628102067
-0.002648562031565839
-0.002815669433126075
-0.004526105018500491
0.008118578977097666
0.01352381003301381
0.01474695258692013
0.009076341878971793
0.003707087463210111
0.005390143929539396
0.003627504358558068
-0.002181281508984883
0.00548056364903315
0.01166955811576743
-0.003895088781898906
-0.01114730836352187
-0.002231970442221448
-0.01173381855929597
-0.01292744250861726
-0.01145535549836241
-0.01269519969703188
-0.001682667408275076
-0.01843237885898704
-0.01340738265279426
0.003980161896994959
0.002769770168396263
-0.01130457045985125
-0.005140502656852506
0.002631102854047657
0.01039070504709262
0.004865789914822148
0.00496560052964893
0.005142188553551843
0.007865083578368185
0.00319056113335187
-0.004827524132517189
0.008788500454828813
0.01665092122743909
0.01182289953200695
0.0123436397343314
0.01735610223873086
0.01267576874097218
0.00376795721567965
0.001773170260960303
0.01228315865595375
0.005456208459719172
-0.003209052176697466
0.001989575596735292
-0.002340718638281805
1.864207996729993E-5
-0.003627616809748943
-0.008474198799194577
0.005496696696522788
0.00393614750678133
-0.003224781399346541
-0.003816384922509494
0.009595553907890363
-0.004157331797934308
0.006258653048328925
0.01013432814405193
0.006608641120085259
0.004013353021137472
-0.002814892864023093
-0.001192591798937672
0.007716974921533257
0.00573688233175711
0.01467218209332958
0.01763896567576848
-2.338128194146103E-4
-0.005181485184226809
-0.006904819402907573
-0.002431345485804773
0.01003970402260154
0.001440615786210317
0.001295431566948557
-0.01114783914822151
-0.0015377879960223
0.002253220320868587
0.007132949714099329
0.001904615723074272
-0.004131379770572822
-0.004082952743236764
-0.01199250249447222
-0.003849866074529551
-0.007259811802320167
-0.01501104709543085
-0.006949051841135775
-0.006411401293259784
7.519494816543895E-4
0.00263070605010395
0.008929080787718717
0.01599713833333546
0.007028567883427981
-0.002264464699919783
-0.005575217715456921
-0.001575413999892781
-4.527422150903601E-4
6.042887149027273E-4
0.01053672207059089
0.01025145405165035
0.002095269513558117
0.01152888991687802
0.01650542982938147
0.004085217338818516
0.005178002740154934
0.008676095924835788
-0.007350101147342675
-5.531948963727463E-4
0.006647575552589461
-0.004650876650248893
-0.00623175954487331
-0.003249430634402144
-0.004534450186674488
-0.006989601565623067
-0.001274887719400494
-0.005849177784770496
-0.002149332938493175
-0.003306728391091851
-0.005930396551854143
-0.009658216882191283
-0.006327145975162242
-0.006279286429223217
-0.005215479024331927
0.002584492507702384
-0.002540115779457207
0.002712711233774967
-7.929654399886339E-4
-0.007882076962661366
-0.01023820876999511
0.01271186785349663
0.003127121312237302
-0.00943180011607218
0.01270574417433772
0.0109876688638452
-0.00196551158342082
-0.009548373809349742
-4.435659953972448E-4
0.005803562722800526
-0.008344423327954122
-0.009150945969365987
-0.01393245355231148
-0.005411881684809692
-0.005354898341642398
-0.01386243127704461
-0.001805630230184673
-0.0122719938833673
-0.01678147713536365
-0.01848665595262896
-0.01001419999806628
0.002608128557946604
-0.01012468465212837
-0.01140085611933128
-0.01294398597831043
-0.01898719209264646
-0.009149752891653666
0.00268039495487806
-9.255779800768001E-4
-0.00803483543251292
0.007653554611814558
0.0138739826819451
0.007376974198593346
0.003740839827066144
0.004372230999589256
0.006242390196324188
0.008644733253903037
0.007946131422692935
0.009829048496175767
-0.002644219863035423
-0.02406595942846374
-0.005636249692483811
9.362638822230624E-4
9.658707729568031E-4
-4.079792401588422E-4
-0.006168796852523959
-0.007427117928195873
-0.0119453935050712
-0.005991199118615809
0.004517023755821025
0.009920635431794505
0.009103792606098995
0.009560740503663415
0.00444714579068928
-9.905911377804425E-4
0.01492748210098393
0.01093445291341806
0.006191079951889175
0.005997445799917514
0.005083568171879277
0.002775979008759279
0.01875730168225993
0.01533774598012026
-0.003393605224035348
-0.003762152061564416
2.392857395398248E-4
-0.01177334482283387
-8.310553486933982E-4
0.006379448527689468
0.002510245876798389
0.00978207995689232
-0.003117393465017915
-0.003236932962550983
0.006467227324347982
-0.01020504768932304
-0.0109410048634444
-0.01362720236906108
-0.006027537702374399
-0.01436220523402287
-0.01780144175975077
-0.009157123206324466
-0.003101011714162994
-0.0139898030304511
-0.001846550633516974
-3.249702725022619E-4
-1.418963441527418E-4
-0.00667295356877888
2.561477833753218E-4
0.008761294501099729
-0.005054414410285702
-0.005093283216110312
0.003049150241098381
0.009404560295325355
-0.01136486785740044
-0.01795563968964298
-0.008448002743082078
-0.00713321272662332
-0.004239904719538543
-0.004062891515873766
-0.003354982466349718
-6.459292804238926E-4
-0.01887300296619692
-0.008205957723377058
-0.006355967351846794
-0.00283533109888907
0.002598590799844789
0.005692199559042982
-0.004217727132919508
-0.005764796245464381
2.33512638818035E-4
0.007338161186048334
0.003558353522653327
-0.003391952316580198
-0.00137461853739696
2.540254321363297E-4
-0.008732341423515571
0.008765756419211608
-0.002152362110545707
0.002044432135802901
0.01040698274370571
-9.537867898092287E-4
0.008300705550567111
0.0113958890576777
-0.002983545767293063
0.00831985087440722
0.001568498231182734
0.007292769848996661
0.003392067209250954
-0.00989360255477514
-8.284154143607073E-4
0.003261038300019953
-0.006650360204093917
0.01039843369962175
3.184186892836357E-5
-0.007953895881244283
0.002707724236417799
-0.01009371705179831
-0.005587994370656288
-0.001825989667671804
-0.001969789361705549
0.0045934581184983
0.003640176625391644
-5.729332379648248E-4
0.00471932782918032
0.003477392107558337
0.008163537747970968
0.008064207836066066
0.005052375344814427
0.003709840773359134
0.003827092033911303
0.01265281987755188
0.007880721335450364
-0.00398363185718766
-0.01765009737231439
-0.01099039410618262
-0.01170656544420356
-0.008174394166974687
-0.004914983776347734
0.002027834076559244
-0.003387547975606627
-0.00837858562612337
-0.01132164843178518
-0.009102742487977307
2.171330138433684E-5
-0.004016764992754222
-0.005032736380720571
0.001128261391760698
-0.003737556213589385
0.001137329584042726
0.007446080861305741
0.01074358190178437
0.01019782341018274
-0.003716699596151687
0.002124027232210436
0.01871949930471411
-5.560909391080678E-4
6.25917870836597E-4
0.001567701132704424
-8.99496779664369E-5
-3.40390008307343E-4
-8.833751377048543E-4
-0.003997165048015751
0.002624861340606202
-0.005625097635928771
-0.002574889632692731
0.002007562022200512
6.962664615917639E-4
-0.001968009517643658
0.005769892742499418
-0.001802301597284079
-0.01003981146254163
3.772795895816805E-4
0.006318226915512912
6.103399823800727E-4
0.00145672673212453
-0.001721111580872718
0.003455440048498742
-0.004670862556350775
-0.01011200775374586
-0.002453202681745137
0.004429588085461335
-0.001972562160588523
-0.007594093980246869
-0.003486440666347701
-0.00583340695825361
-0.00933406981574652
-0.003039638611867718
-0.001062164326083994
0.005998832119852962
9.014038027981425E-4
0.00442626387545329
0.003499933184596218
0.004891791971028852
0.001338314803522577
0.01437540380875135
0.009409797244937313
0.005557507325841428
0.005916295773337263
0.01517926757648573
0.0145104062266889
0.007306464288720017
-0.01058344902523074
-0.006596568296079557
-0.01172951505111497
0.0106030665561499
0.006430675275801808
-0.002823061679642114
-0.002426504494076164
0.002783264747105477
3.048285141701294E-4
-0.003438958923693674
0.004768613104311437
-0.008407444955543845
-1.368460584525006E-4
0.01857627277964511
0.01778699995163587
0.005693203828032731
0.007026135955876013
0.006320833266731476
0.002547275497299536
8.647490394448877E-4
-2.415979705463324E-4
0.00327083074259198
0.01002087253364939
0.008891810142171296
-0.00843824528165419
-0.003644135291669439
0.004299440184513157
9.506157238082423E-4
-0.01387171238734816
-0.01095682295102281
-0.003702305437799
-0.004118848448182486
-0.01225244173676544
0.003472210833184378
-6.408704608900998E-4
9.361654557028633E-4
-0.001719467509617175
-4.90341852518854E-4
-0.002001351661578363
0.001047783445223121
3.209850832633945E-4
-1.256898533763145E-4
-0.004417890158444557
-0.004537931274540665
-0.01249460533815036
-0.002128021293321053
0.01044410838860742
0.00564905054514121
0.002498739284237609
0.007880055783620069
0.005240644420068476
-0.005826279555473818
-0.00294956446116154
0.009218110657766392
3.617728280476104E-4
6.727591303016204E-5
-0.01040382815285378
0.006308814583782317
-0.0026141377609445
-0.005235234326588236
0.002585348430442101
-0.003590127961912079
-0.006507121549855339
0.002738373096368464
-0.006185650477583981
-0.009254940941600691
0.01245681764759621
0.02031673668094863
0.009907834006194834
0.005892413394253769
0.01155954242043021
0.004732376898297808
0.007233733483566377
0.01094800997134341
0.02214966170811865
0.01554574712786068
0.002680275706060739
-0.007191107248829669
-0.003839037227610896
0.002450066292487602
-1.042762932413664E-4
-0.01282253264049403
-0.01160404351535483
-0.008461498340819816
-0.004209275977862947
0.002898484412748061
-0.005461605391471608
-0.006383036550222473
-0.009753519791798065
-0.004588174153691214
-0.01226032629201378
0.005731791210488143
-0.003727292069126717
0.00389350205258693
-1.789349682247114E-5
-0.007502478410739934
-0.003465881351167744
-0.004792849836374879
-0.009515698077102293
0.007515387466683563
0.003903112609806958
-0.003454736567718863
-0.01280964650654921
-0.009398446091203378
0.004085005387355799
0.00623993413100675
-0.0033620832776699
0.003258068405469522
0.002014837301544513
0.00319767813106057
-0.003205158990648056
0.008852878829471321
0.004612865751543666
2.032209212659626E-4
-0.006742455680704137
6.628837807535243E-4
0.01000589527775974
0.003339493681016339
0.002165477351760672
9.747855207662132E-4
0.004344133557575132
0.002363226484477514
0.00121818954051136
0.006286245259264133
0.005127967077675054
-0.008735761276852876
-0.003998514927006881
9.318188565480498E-4
-5.077344055754773E-4
0.008546431620425343
-0.003235170868654398
0.006399450565055765
0.01054358187125755
0.0135079523326237
0.003332443434704717
-3.265736428614973E-4
8.600288800686965E-4
-0.0013700755882261
-0.001585983478975342
0.01004523585737992
0.002691681872090155
0.001993929522262193
0.005374071812046173
0.006050195017680515
0.006470282066941763
0.006879491147130178
0.01204961867753818
-6.690168559641877E-4
-0.004483908519986055
0.007562018245626892
-0.007049476993298053
-0.0134816445602163
-0.005584208532105277
-0.003854413278553511
0.003517927259562573
0.003404541100166514
7.539980273042234E-4
-0.004571781648934739
-0.001713951142093729
-0.003394840801973543
-0.003989670283359328
-0.003177554552292433
0.004351905400819396
-0.001554581199776974
-0.01669969821308148
-0.01533389191768834
-0.002392589449104063
-0.004175160017385034
0.007671221524179048
9.830514175568645E-4
-1.097191637089139E-4
0.005962623409447814
0.00314064640148272
-0.003388543175393291
9.287736351204039E-4
0.007606667453792165
0.00518479070501385
-0.004974677086319462
-0.007339588745592232
-0.003892536890442499
-0.004949529752891872
-9.94498333446806E-4
-0.007742183631985705
-3.812496269583768E-4
-4.007225404509932E-4
-0.01131079987510322
-0.01949729731903348
-0.009725535856715616
0.002563539702522679
0.001628140360357347
-0.004212509452702947
-0.00594105946561144
-0.01284228991015121
-0.02109946643030058
-0.01275770163708403
5.805456307246346E-4
1.129017232408612E-4
-0.004694982964511023
-0.009723746686459048
-8.470042234481139E-4
0.004750900606443704
-0.001811080162329872
2.597328831985506E-4
6.928983366292119E-4
-0.009751795796198507
-0.009330294748588841
-0.008939172462452318
-0.005287283526134161
0.01071956835580052
0.009301691307174492
0.002042993773451161
6.506383564145196E-4
-0.008257414499349596
-0.01072824401831004
-0.006221228057119266
-0.00204824137405924
-0.009027336972165857
-5.184312816549205E-4
0.001627078283387511
-0.002578135036254195
4.537284961277625E-4
0.006721917873745866
1.098033313693825E-4
-0.001820342685744794
-0.004566293565648094
-0.002633493613434609
-2.208519650251912E-4
0.01237041976938423
0.003101105852366562
-0.01139474403727707
-0.008740933648901958
-0.006010612074876056
0.003863745991557116
0.004991366864741079
0.008841249830381108
0.01014916997005111
0.01449684407384476
0.005280217610403516
-0.004041130386384643
-0.002001313694945745
0.001758649891695304
0.006800054466164258
-0.003412265620841328
-0.00667081205945661
-0.006951405394529459
-0.009414807370901853
